jspsychread • jspsychread
…
Although the mentioned columns might already be of your interest, all
really interesting information are stored as a list in the final column
called raw.

d <- read_jspsych(filename)

d
#> # A tibble: 24 × 6
#>    record trial_type              trial_index time_elapsed intern…¹ raw         
#>     <dbl> <chr>                         <int>        <int> <chr>    <list>      
#>  1      1 preload                           0            3 0.0-0.0  <named list>
#>  2      1 html-keyboard-response            1         5215 0.0-1.0  <named list>
#>  3      1 html-keyboard-response            2        13909 0.0-2.0  <named list>
#>  4      1 html-keyboard-response            3        17423 0.0-3.0… <named list>
#>  5      1 image-keyboard-response           4        18047 0.0-3.0… <named list>
#>  6      1 html-keyboard-response            5        18550 0.0-3.0… <named list>
#>  7      1 image-keyboard-response           6        19217 0.0-3.0… <named list>
#>  8      1 html-keyboard-response            7        19974 0.0-3.0… <named list>
#>  9      1 image-keyboard-response           8        20499 0.0-3.0… <named list>
#> 10      1 html-keyboard-response            9        21751 0.0-3.0… <named list>
#> # … with 14 more rows, and abbreviated variable name ¹​internal_node_id
…
